{"content":[{"id":3,"createdAt":"2025-10-12T17:14:11.012675","updatedAt":"2025-10-12T17:14:11.012675","name":"Труба PPR PN20 20мм белая (4м)","description":"Полипропиленовая труба для холодного и горячего водоснабжения. Рабочая температура до +80°C. Производство Турция.","price":450.00,"oldPrice":550.00,"brand":"Pilsa","sku":"PPR-PN20-20","imageUrl":"https://images.unsplash.com/photo-1581092160562-40aa08e78837?w=800","additionalImages":[],"specifications":"{\"diameter\": \"20мм\", \"pressure\": \"PN20\", \"length\": \"4м\", \"material\": \"PPR\", \"color\": \"белый\"}","isActive":true,"isFeatured":true},{"id":4,"createdAt":"2025-10-12T17:14:11.012675","updatedAt":"2025-10-12T17:14:11.012675","name":"Труба PPR PN25 армированная 25мм (4м)","description":"Армированная стекловолокном труба для систем отопления и горячего водоснабжения. Выдерживает температуру до +95°C.","price":780.00,"brand":"Kalde","sku":"PPR-PN25-25","imageUrl":"https://images.unsplash.com/photo-1504328345606-18bbc8c9d7d1?w=800","additionalImages":[],"specifications":"{\"diameter\": \"25мм\", \"pressure\": \"PN25\", \"length\": \"4м\", \"material\": \"PPR армированный\", \"reinforcement\": \"стекловолокно\"}","isActive":true,"isFeatured":true},{"id":5,"createdAt":"2025-10-12T17:14:11.012675","updatedAt":"2025-10-12T17:14:11.012675","name":"Труба металлопластиковая 16мм (100м)","description":"Металлопластиковая труба с защитным покрытием. Универсальное применение для водоснабжения и отопления.","price":3200.00,"oldPrice":3800.00,"brand":"Henco","sku":"MP-16-100","imageUrl":"https://images.unsplash.com/photo-1597740985671-2a8a3b1e0b94?w=800","additionalImages":[],"specifications":"{\"diameter\": \"16мм\", \"length\": \"100м\", \"material\": \"металлопластик\", \"application\": \"универсальная\"}","isActive":true,"isFeatured":false},{"id":6,"createdAt":"2025-10-12T17:14:11.012675","updatedAt":"2025-10-12T17:14:11.012675","name":"Уголок PPR 90° 20мм","description":"Полипропиленовый уголок для соединения труб под углом 90 градусов. Подходит для труб диаметром 20мм.","price":45.00,"brand":"Pilsa","sku":"ANGLE-PPR-20","imageUrl":"https://images.unsplash.com/photo-1565122982-28d37e1a8460?w=800","additionalImages":[],"specifications":"{\"angle\": \"90°\", \"diameter\": \"20мм\", \"material\": \"PPR\", \"type\": \"уголок\"}","isActive":true,"isFeatured":false},{"id":7,"createdAt":"2025-10-12T17:14:11.012675","updatedAt":"2025-10-12T17:14:11.012675","name":"Тройник PPR 20x20x20мм","description":"Полипропиленовый тройник для разветвления трубопровода. Равнопроходной.","price":65.00,"brand":"Kalde","sku":"TEE-PPR-20","imageUrl":"https://images.unsplash.com/photo-1581092160562-40aa08e78837?w=800","additionalImages":[],"specifications":"{\"diameter\": \"20x20x20мм\", \"material\": \"PPR\", \"type\": \"тройник равнопроходной\"}","isActive":true,"isFeatured":true}],"pageable":{"pageNumber":0,"pageSize":5,"sort":{"empty":true,"sorted":false,"unsorted":true},"offset":0,"paged":true,"unpaged":false},"last":false,"totalElements":118,"totalPages":24,"first":true,"numberOfElements":5,"size":5,"number":0,"sort":{"empty":true,"sorted":false,"unsorted":true},"empty":false}